# Blender v3.0.0 OBJ File: 'STUFF_hw.V2.blend'
# www.blender.org
mtllib Cube_hw_v4_200.mtl
o Cube.002_Cube
v -15405.164062 -15778.597656 15001.495117
v -12844.699219 -13058.323242 12415.195312
v -15405.164062 15778.597656 15001.495117
v -12844.699219 13058.323242 12415.195312
v -15405.164062 -15778.597656 -15001.495117
v -12844.699219 -13058.323242 -12415.195312
v -15405.164062 15778.597656 -15001.495117
v -12844.699219 13058.323242 -12415.195312
v 15405.164062 -15778.597656 15001.495117
v 12653.841797 -13058.323242 12415.195312
v 12653.841797 13058.323242 12415.195312
v 15405.164062 15778.597656 15001.495117
v 15405.164062 -15778.597656 -15001.495117
v 12653.841797 -13058.323242 -12415.195312
v 12653.841797 13058.323242 -12415.195312
v 15405.164062 15778.597656 -15001.495117
v -12844.699219 0.000000 12415.195312
v -12844.699219 0.000000 -12415.195312
v 12653.841797 0.000000 -12415.195312
v 12653.841797 0.000000 12415.195312
v -95.428467 -13058.323242 -12415.195312
v -95.428467 13058.323242 -12415.195312
v -95.428467 -13058.323242 12415.195312
v -95.428467 13058.323242 12415.195312
v -95.428467 0.000000 12415.195312
v -95.428467 0.000000 -12415.195312
v -12844.699219 -803.396606 -12415.195312
v 12653.841797 -803.396606 -12415.195312
v 12653.841797 -803.396606 12415.195312
v -12844.699219 -803.396606 12415.195312
v -95.428467 -803.396606 -12415.195312
v -95.428467 -803.396606 12415.195312
v -12844.699219 849.046021 12415.195312
v -12844.699219 849.046021 -12415.195312
v 12653.841797 849.046021 -12415.195312
v 12653.841797 849.046021 12415.195312
v -95.428467 849.046021 12415.195312
v -95.428467 849.046021 -12415.195312
v 302.986542 13058.323242 -12415.195312
v 302.986542 -13058.323242 12415.195312
v 302.986542 0.000000 -12415.195312
v 302.986542 -13058.323242 -12415.195312
v 302.986542 13058.323242 12415.195312
v 302.986542 0.000000 12415.195312
v 302.986542 -803.396606 12415.195312
v 302.986542 -803.396606 -12415.195312
v 302.986542 849.046021 12415.195312
v 302.986542 849.046021 -12415.195312
v -531.301025 -13058.323242 -12415.195312
v -531.301025 13058.323242 12415.195312
v -531.301025 0.000000 12415.195312
v -531.301025 13058.323242 -12415.195312
v -531.301025 -13058.323242 12415.195312
v -531.301025 0.000000 -12415.195312
v -531.301025 -803.396606 -12415.195312
v -531.301025 -803.396606 12415.195312
v -531.301025 849.046021 -12415.195312
v -531.301025 849.046021 12415.195312
v 12653.841797 849.046021 15001.495117
v -15405.164062 -803.396606 12415.195312
v -15405.164062 849.046021 12415.195312
v -15405.164062 13058.323242 -12415.195312
v 302.986542 849.046021 15001.495117
v -15405.164062 13058.323242 12415.195312
v -12844.699219 -13058.323242 15001.495117
v -12844.699219 -803.396606 15001.495117
v -15405.164062 -13058.323242 12415.195312
v -531.301025 -13058.323242 15001.495117
v 12653.841797 13058.323242 15001.495117
v -12844.699219 -13058.323242 -15001.495117
v -15405.164062 -13058.323242 -12415.195312
v -15405.164062 -803.396606 -12415.195312
v -15405.164062 849.046021 -12415.195312
v -531.301025 849.046021 15001.495117
v -12844.699219 849.046021 15001.495117
v -531.301025 -803.396606 15001.495117
v -531.301025 -13058.323242 -15001.495117
v -95.428467 15778.597656 -12415.195312
v -531.301025 13058.323242 15001.495117
v 12653.841797 -803.396606 -15001.495117
v 302.986542 15778.597656 -12415.195312
v 302.986542 -803.396606 -15001.495117
v 12653.841797 15778.597656 12415.195312
v -531.301025 13058.323242 -15001.495117
v -12844.699219 -803.396606 -15001.495117
v 302.986542 15778.597656 12415.195312
v -12844.699219 849.046021 -15001.495117
v -12844.699219 13058.323242 -15001.495117
v 15405.164062 -803.396606 12415.195312
v -531.301025 849.046021 -15001.495117
v 302.986542 849.046021 -15001.495117
v 12653.841797 13058.323242 -15001.495117
v 302.986542 13058.323242 -15001.495117
v 15405.164062 -803.396606 -12415.195312
v -531.301025 -803.396606 -15001.495117
v 15405.164062 -13058.323242 12415.195312
v 302.986542 -13058.323242 -15001.495117
v 12653.841797 -13058.323242 -15001.495117
v 15405.164062 -13058.323242 -12415.195312
v -531.301025 15778.597656 -12415.195312
v 15405.164062 849.046021 12415.195312
v -95.428467 15778.597656 12415.195312
v 15405.164062 13058.323242 12415.195312
v -12844.699219 15778.597656 -12415.195312
v 12653.841797 849.046021 -15001.495117
v 15405.164062 13058.323242 -12415.195312
v -531.301025 15778.597656 12415.195312
v -12844.699219 15778.597656 12415.195312
v 12653.841797 15778.597656 -12415.195312
v 15405.164062 849.046021 -12415.195312
v -12844.699219 -15778.597656 12415.195312
v -531.301025 -15778.597656 12415.195312
v -95.428467 -15778.597656 12415.195312
v 302.986542 -15778.597656 12415.195312
v 302.986542 -15778.597656 -12415.195312
v -95.428467 -15778.597656 -12415.195312
v 302.986542 -13058.323242 15001.495117
v 302.986542 -803.396606 15001.495117
v 12653.841797 -15778.597656 12415.195312
v 12653.841797 -13058.323242 15001.495117
v -12844.699219 -15778.597656 -12415.195312
v 302.986542 13058.323242 15001.495117
v 12653.841797 -803.396606 15001.495117
v 12653.841797 -15778.597656 -12415.195312
v -531.301025 -15778.597656 -12415.195312
v -12844.699219 13058.323242 15001.495117
vt 0.375000 0.000000
vt 0.625000 0.000000
vt 0.625000 0.250000
vt 0.375000 0.250000
vt 0.396550 0.228450
vt 0.493635 0.228450
vt 0.506726 0.228450
vt 0.603450 0.228450
vt 0.603450 0.021550
vt 0.506726 0.021550
vt 0.493635 0.021550
vt 0.396550 0.021550
vt 0.506726 0.377459
vt 0.506726 0.370689
vt 0.603450 0.370689
vt 0.603450 0.270776
vt 0.625000 0.500000
vt 0.375000 0.500000
vt 0.396550 0.270776
vt 0.396550 0.370689
vt 0.396550 0.377459
vt 0.396550 0.477675
vt 0.493635 0.477675
vt 0.506726 0.477675
vt 0.603450 0.477675
vt 0.603450 0.377459
vt 0.493635 0.377459
vt 0.493635 0.370689
vt 0.493635 0.270776
vt 0.506726 0.270776
vt 0.625000 0.750000
vt 0.375000 0.750000
vt 0.396550 0.728450
vt 0.493635 0.728450
vt 0.506726 0.728450
vt 0.603450 0.728450
vt 0.603450 0.521550
vt 0.506726 0.521550
vt 0.493635 0.521550
vt 0.396550 0.521550
vt 0.506726 0.872541
vt 0.603450 0.872542
vt 0.603450 0.879311
vt 0.506726 0.879311
vt 0.396550 0.979224
vt 0.375000 1.000000
vt 0.625000 1.000000
vt 0.603450 0.979224
vt 0.603450 0.772325
vt 0.506726 0.772325
vt 0.506726 0.979224
vt 0.493635 0.979224
vt 0.493635 0.879311
vt 0.493635 0.872541
vt 0.493635 0.772325
vt 0.396550 0.772325
vt 0.396550 0.872542
vt 0.396550 0.879311
vt 0.145776 0.728450
vt 0.125000 0.750000
vt 0.125000 0.500000
vt 0.145776 0.521550
vt 0.245689 0.728450
vt 0.249226 0.728450
vt 0.252458 0.728450
vt 0.352675 0.728450
vt 0.352675 0.521550
vt 0.252458 0.521550
vt 0.249226 0.521550
vt 0.245689 0.521550
vt 0.854224 0.728450
vt 0.875000 0.750000
vt 0.875000 0.500000
vt 0.854224 0.521550
vt 0.754311 0.521550
vt 0.750774 0.521550
vt 0.747542 0.521550
vt 0.647325 0.521550
vt 0.647325 0.728450
vt 0.747542 0.728450
vt 0.750774 0.728450
vt 0.754311 0.728450
vt 0.875000 0.500000
vt 0.875000 0.750000
vt 0.875000 0.750000
vt 0.875000 0.500000
vt 0.492310 0.370726
vt 0.492310 0.250000
vt 0.492310 0.250000
vt 0.492310 0.370726
vt 0.508127 0.500000
vt 0.508127 0.500000
vt 0.508127 0.750000
vt 0.508127 0.750000
vt 0.492310 0.750000
vt 0.375000 0.750000
vt 0.375000 0.750000
vt 0.492310 0.750000
vt 0.375000 0.879274
vt 0.375000 0.879274
vt 0.375000 0.875000
vt 0.375000 0.875000
vt 0.875000 0.750000
vt 0.875000 0.500000
vt 0.492310 0.879274
vt 0.492310 1.000000
vt 0.500000 1.000000
vt 0.500000 0.879274
vt 0.492310 0.500000
vt 0.500000 0.750000
vt 0.500000 0.500000
vt 0.492310 0.378906
vt 0.500000 0.378906
vt 0.492310 0.000000
vt 0.500000 0.250000
vt 0.500000 0.000000
vt 0.492310 0.375000
vt 0.500000 0.375000
vt 0.500000 0.370726
vt 0.492310 0.871094
vt 0.492310 0.875000
vt 0.500000 0.875000
vt 0.500000 0.871094
vt 0.625000 0.875000
vt 0.625000 0.879274
vt 0.625000 0.879274
vt 0.625000 0.875000
vt 0.746094 0.500000
vt 0.746094 0.500000
vt 0.625000 0.500000
vt 0.625000 0.500000
vt 0.508127 0.871094
vt 0.508127 0.875000
vt 0.625000 0.871094
vt 0.508127 0.370726
vt 0.508127 0.375000
vt 0.625000 0.375000
vt 0.625000 0.370726
vt 0.375000 0.871094
vt 0.375000 0.370726
vt 0.375000 0.375000
vt 0.375000 1.000000
vt 0.375000 1.000000
vt 0.492310 1.000000
vt 0.625000 0.250000
vt 0.625000 0.250000
vt 0.508127 0.250000
vt 0.508127 0.250000
vt 0.625000 0.500000
vt 0.508127 1.000000
vt 0.625000 1.000000
vt 0.625000 1.000000
vt 0.508127 1.000000
vt 0.508127 0.879274
vt 0.508127 0.378906
vt 0.508127 0.000000
vt 0.375000 0.378906
vt 0.746094 0.750000
vt 0.746094 0.750000
vt 0.625000 0.750000
vt 0.625000 0.750000
vt 0.508127 0.879274
vt 0.625000 0.375000
vt 0.625000 0.378906
vt 0.625000 0.378906
vt 0.746094 0.750000
vt 0.625000 0.750000
vt 0.375000 0.370726
vt 0.253906 0.500000
vt 0.253906 0.500000
vt 0.375000 0.500000
vt 0.375000 0.500000
vt 0.625000 0.370726
vt 0.508127 0.000000
vt 0.508127 0.250000
vt 0.125000 0.750000
vt 0.125000 0.500000
vt 0.125000 0.500000
vt 0.125000 0.750000
vt 0.492310 0.000000
vt 0.492310 0.250000
vt 0.375000 0.250000
vt 0.375000 0.250000
vt 0.625000 0.250000
vt 0.508127 1.000000
vt 0.625000 1.000000
vt 0.492310 0.871094
vt 0.375000 0.871094
vt 0.253906 0.750000
vt 0.253906 0.750000
vt 0.508127 0.750000
vt 0.625000 0.871094
vt 0.508127 0.871094
vt 0.754273 0.750000
vt 0.754273 0.750000
vt 0.875000 0.750000
vt 0.492310 1.000000
vt 0.375000 1.000000
vt 0.245726 0.750000
vt 0.245726 0.750000
vt 0.125000 0.750000
vt 0.492310 0.879274
vt 0.625000 0.879274
vt 0.375000 0.879274
vt 0.492310 0.500000
vt 0.492310 0.750000
vt 0.375000 0.750000
vt 0.375000 0.500000
vt 0.625000 0.750000
vt 0.625000 0.378906
vt 0.508127 0.378906
vt 0.508127 0.370726
vt 0.625000 0.370726
vt 0.492310 0.378906
vt 0.375000 0.378906
vt 0.508127 0.500000
vt 0.625000 0.500000
vt 0.375000 0.250000
vt 0.125000 0.500000
vt 0.245726 0.500000
vt 0.245726 0.500000
vt 0.492310 0.500000
vt 0.754274 0.500000
vt 0.875000 0.500000
vt 0.754274 0.500000
vt 0.746094 0.500000
vt 0.625000 0.871094
vt 0.754274 0.500000
vt 0.754274 0.750000
vt 0.125000 0.750000
vt 0.245726 0.750000
vt 0.375000 0.871094
vt 0.375000 0.378906
vt 0.375000 0.375000
vt 0.253906 0.750000
vt 0.375000 0.750000
vt 0.125000 0.500000
vt 0.375000 0.500000
vt 0.245726 0.500000
vt 0.253906 0.500000
vt 0.375000 0.370727
vn -0.5773 -0.5773 0.5773
vn -0.5773 0.5773 0.5773
vn -0.5773 0.5773 -0.5773
vn -0.5773 -0.5773 -0.5773
vn -0.9045 0.3015 0.3015
vn -0.9045 -0.3015 0.3015
vn -0.9045 0.3015 -0.3015
vn -0.9045 -0.3015 -0.3015
vn 0.3015 0.3015 -0.9045
vn -0.3015 0.3015 -0.9045
vn 0.3015 -0.3015 -0.9045
vn 0.5773 0.5773 -0.5773
vn 0.5773 -0.5773 -0.5773
vn -0.3015 -0.3015 -0.9045
vn 0.5773 0.5773 0.5773
vn 0.5773 -0.5773 0.5773
vn 0.9045 0.3015 -0.3015
vn 0.9045 -0.3015 -0.3015
vn 0.9045 0.3015 0.3015
vn 0.9045 -0.3015 0.3015
vn 0.3015 0.3015 0.9045
vn 0.3015 -0.3015 0.9045
vn -0.3015 -0.3015 0.9045
vn -0.3015 0.3015 0.9045
vn 0.3015 -0.9045 -0.3015
vn 0.3015 -0.9045 0.3015
vn 0.0000 -0.7071 -0.7071
vn 0.0000 -0.7071 0.7071
vn 0.3015 0.9045 -0.3015
vn 0.3015 0.9045 0.3015
vn 0.0000 0.7071 0.7071
vn 0.0000 0.7071 -0.7071
vn 0.0000 0.0000 -1.0000
vn 0.7071 0.0000 -0.7071
vn -0.7071 0.0000 -0.7071
vn -0.7071 0.0000 0.7071
vn 0.0000 0.0000 1.0000
vn 0.7071 0.0000 0.7071
usemtl None
s 1
f 1/1/1 3/2/2 7/3/3 5/4/4 71/5/5 72/6/6 73/7/5 62/8/1 64/9/4 61/10/7 60/11/8 67/12/7
f 5/4/4 1/1/1 67/12/7 71/5/5
f 73/7/5 72/6/6 60/11/8 61/10/7
f 91/13/9 90/14/10 84/15/4 88/16/11 7/3/3 16/17/12 13/18/13 5/4/4 70/19/9 77/20/10 97/21/9 98/22/3 80/23/14 105/24/10 92/25/4 93/26/13
f 80/23/14 82/27/13 97/21/9 77/20/10 95/28/4 85/29/13 70/19/9 5/4/4 7/3/3 88/16/11 87/30/12 90/14/10 91/13/9 105/24/10
f 13/18/13 16/17/12 12/31/15 9/32/16 96/33/17 89/34/18 101/35/17 103/36/13 106/37/16 110/38/19 94/39/20 99/40/19
f 96/33/17 9/32/16 13/18/13 99/40/19
f 101/35/17 89/34/18 94/39/20 110/38/19
f 63/41/21 122/42/22 79/43/23 74/44/24
f 65/45/21 1/46/1 9/32/16 12/31/15 3/47/2 126/48/22 79/43/23 122/42/22 69/49/1 59/50/2 63/41/21 74/44/24 75/51/21 66/52/22 76/53/23 118/54/22 123/55/1 120/56/2 117/57/21 68/58/24
f 126/48/22 3/47/2 1/46/1 65/45/21 66/52/22 75/51/21
f 76/53/23 68/58/24 117/57/21 118/54/22
f 111/59/25 1/60/1 5/61/4 121/62/26
f 121/62/26 5/61/4 13/18/13 9/32/16 1/60/1 111/59/25 112/63/27 113/64/27 114/65/27 119/66/4 124/67/1 115/68/28 116/69/28 125/70/28
f 108/71/29 3/72/2 12/31/15 16/17/12 7/73/3 104/74/30 100/75/31 78/76/31 81/77/31 109/78/2 83/79/3 86/80/32 102/81/32 107/82/32
f 7/73/3 3/72/2 108/71/29 104/74/30
f 8/83/16 4/84/13 64/85/4 62/86/1
f 55/87/23 27/88/16 85/89/13 95/90/4
f 110/91/19 35/92/2 36/93/3 101/94/17
f 29/95/4 10/96/3 120/97/2 123/98/1
f 112/99/27 53/100/10 23/101/33 113/102/27
f 108/103/29 4/84/13 8/83/16 104/104/30
f 56/105/14 30/106/13 17/107/34 51/108/33
f 28/109/1 29/95/4 20/110/35 19/111/36
f 46/112/22 28/109/1 19/111/36 41/113/37
f 30/114/13 27/88/16 18/115/38 17/116/34
f 55/87/23 31/117/37 26/118/37 54/119/37
f 45/120/11 32/121/33 25/122/33 44/123/33
f 24/124/33 50/125/14 107/126/32 102/127/32
f 81/128/31 39/129/22 15/130/1 109/131/2
f 47/132/9 37/133/33 24/124/33 43/134/11
f 57/135/24 38/136/37 22/137/37 52/138/23
f 40/139/9 23/101/33 32/121/33 45/120/11
f 49/140/24 21/141/37 31/117/37 55/87/23
f 30/106/13 2/142/12 67/143/7 60/144/8
f 88/145/11 8/146/16 34/147/15 87/148/12
f 106/149/16 15/130/1 35/92/2 110/91/19
f 33/150/12 4/151/13 126/152/22 75/153/21
f 54/119/37 26/118/37 38/136/37 57/135/24
f 44/123/33 25/122/33 37/133/33 47/132/9
f 51/108/33 17/107/34 33/150/12 58/154/10
f 19/111/36 20/110/35 36/93/3 35/92/2
f 41/113/37 19/111/36 35/92/2 48/155/21
f 17/116/34 18/115/38 34/147/15 33/156/12
f 26/118/37 41/113/37 48/155/21 38/136/37
f 20/110/35 44/123/33 47/132/9 36/93/3
f 21/141/37 42/157/21 46/112/22 31/117/37
f 122/158/22 43/159/11 11/160/4 69/161/1
f 74/162/24 58/154/10 33/150/12 75/153/21
f 78/163/31 22/137/37 39/164/22 81/165/31
f 29/95/4 45/120/11 44/123/33 20/110/35
f 31/117/37 46/112/22 41/113/37 26/118/37
f 11/160/4 43/159/11 86/166/32 83/167/3
f 38/136/37 48/155/21 39/164/22 22/137/37
f 25/122/33 51/108/33 58/154/10 37/133/33
f 18/115/38 54/119/37 57/135/24 34/147/15
f 23/101/33 53/100/10 56/105/14 32/121/33
f 77/168/10 49/140/24 55/87/23 95/90/4
f 97/169/9 42/170/21 14/171/2 98/172/3
f 27/88/16 55/87/23 54/119/37 18/115/38
f 32/121/33 56/105/14 51/108/33 25/122/33
f 100/173/31 52/138/23 22/137/37 78/163/31
f 37/133/33 58/154/10 50/125/14 24/124/33
f 61/174/7 33/156/12 34/147/15 73/175/5
f 2/176/12 6/177/15 71/178/5 67/179/7
f 27/88/16 30/114/13 60/180/8 72/181/6
f 6/182/15 27/88/16 72/181/6 71/183/5
f 34/147/15 8/146/16 62/184/1 73/175/5
f 4/151/13 33/150/12 61/185/7 64/186/4
f 40/139/9 45/120/11 118/187/22 117/188/21
f 120/97/2 10/96/3 40/189/9 117/190/21
f 11/160/4 36/93/3 59/191/2 69/161/1
f 45/120/11 29/95/4 123/98/1 118/187/22
f 47/132/9 43/134/11 122/192/22 63/193/21
f 4/84/13 50/194/14 79/195/23 126/196/22
f 59/191/2 36/93/3 47/132/9 63/193/21
f 2/142/12 30/106/13 66/197/22 65/198/21
f 68/199/24 53/200/10 2/176/12 65/201/21
f 66/197/22 30/106/13 56/105/14 76/202/23
f 50/125/14 58/154/10 74/162/24 79/203/23
f 56/105/14 53/100/10 68/204/24 76/202/23
f 29/95/4 28/109/1 94/205/20 89/206/18
f 96/207/17 10/96/3 29/95/4 89/206/18
f 99/208/19 14/171/2 10/96/3 96/207/17
f 101/94/17 36/93/3 11/160/4 103/209/13
f 103/209/13 11/160/4 15/130/1 106/149/16
f 94/205/20 28/109/1 14/171/2 99/208/19
f 93/210/13 39/164/22 48/155/21 91/211/9
f 90/212/10 57/135/24 52/138/23 84/213/4
f 82/214/13 46/112/22 42/157/21 97/215/9
f 105/216/10 35/92/2 15/130/1 92/217/4
f 91/211/9 48/155/21 35/92/2 105/216/10
f 87/148/12 34/147/15 57/135/24 90/212/10
f 85/89/13 27/88/16 6/182/15 70/218/9
f 70/219/9 6/177/15 49/220/24 77/221/10
f 28/109/1 46/112/22 82/214/13 80/222/14
f 52/223/23 8/83/16 88/224/11 84/225/4
f 15/130/1 39/129/22 93/226/13 92/217/4
f 98/172/3 14/171/2 28/109/1 80/222/14
f 43/134/11 24/124/33 102/127/32 86/227/32
f 104/104/30 8/83/16 52/223/23 100/228/31
f 50/194/14 4/84/13 108/103/29 107/229/32
f 15/130/1 11/160/4 83/167/3 109/131/2
f 111/230/25 2/176/12 53/200/10 112/231/27
f 113/102/27 23/101/33 40/139/9 114/232/27
f 115/233/28 42/157/21 21/141/37 116/234/28
f 114/235/27 40/189/9 10/96/3 119/236/4
f 121/237/26 6/177/15 2/176/12 111/230/25
f 10/96/3 14/171/2 124/238/1 119/236/4
f 125/239/28 49/220/24 6/177/15 121/237/26
f 124/238/1 14/171/2 42/170/21 115/240/28
f 116/234/28 21/141/37 49/140/24 125/241/28
